{
  "info": {
    "_postman_id": "8fd7dada-02aa-4faa-a579-929a7c943e54",
    "name": "express_orm_capstone",
    "schema": "https://schema.getpostman.com/json/collection/v2.1.0/collection.json",
    "_exporter_id": "27963319"
  },
  "item": [
    {
      "name": "signup",
      "request": {
        "method": "POST",
        "header": [],
        "body": {
          "mode": "raw",
          "raw": "{\r\n    \"email\": \"auhien462@gmail.com\",\r\n    \"password\": \"Hien040602\",\r\n    \"full_name\": \"Âu Minh Hiền\",\r\n    \"age\": 21\r\n}",
          "options": {
            "raw": {
              "language": "json"
            }
          }
        },
        "url": {
          "raw": "{{domain}}/api/user/signup",
          "host": ["{{domain}}"],
          "path": ["api", "user", "signup"]
        }
      },
      "response": []
    },
    {
      "name": "login",
      "request": {
        "method": "POST",
        "header": [],
        "body": {
          "mode": "raw",
          "raw": "{\r\n    \"email\": \"hoanglam0869@gmail.com\",\r\n    \"password\": \"Lam280693\"\r\n}",
          "options": {
            "raw": {
              "language": "json"
            }
          }
        },
        "url": {
          "raw": "{{domain}}/api/user/login",
          "host": ["{{domain}}"],
          "path": ["api", "user", "login"]
        }
      },
      "response": []
    },
    {
      "name": "upload image",
      "request": {
        "method": "POST",
        "header": [
          {
            "key": "token",
            "value": "eyJhbGciOiJIUzI1NiIsInR5cCI6IkpXVCJ9.eyJkYXRhIjp7Im5ndW9pX2R1bmdfaWQiOjEsImVtYWlsIjoiaG9hbmdsYW0wODY5QGdtYWlsLmNvbSIsIm1hdF9raGF1IjoiIiwiaG9fdGVuIjoiQ-G6pW4gSG_DoG5nIEzDom0iLCJ0dW9pIjozMCwiYW5oX2RhaV9kaWVuIjoiIn0sImlhdCI6MTY5MTMyNjE3NiwiZXhwIjoxNjkxNDEyNTc2fQ.Dj0PgazBwFUsG4vA0n5OIA4-VwlW9ty1T03IT_yTOmc",
            "type": "text"
          }
        ],
        "body": {
          "mode": "formdata",
          "formdata": [
            {
              "key": "file",
              "type": "file",
              "src": "/C:/Users/ADMIN/Pictures/coffee.jpg"
            }
          ]
        },
        "url": {
          "raw": "{{domain}}/api/image/upload-image",
          "host": ["{{domain}}"],
          "path": ["api", "image", "upload-image"]
        }
      },
      "response": []
    },
    {
      "name": "create image",
      "request": {
        "method": "POST",
        "header": [
          {
            "key": "token",
            "value": "eyJhbGciOiJIUzI1NiIsInR5cCI6IkpXVCJ9.eyJkYXRhIjp7Im5ndW9pX2R1bmdfaWQiOjEsImVtYWlsIjoiaG9hbmdsYW0wODY5QGdtYWlsLmNvbSIsIm1hdF9raGF1IjoiIiwiaG9fdGVuIjoiQ-G6pW4gSG_DoG5nIEzDom0iLCJ0dW9pIjozMCwiYW5oX2RhaV9kaWVuIjoiIn0sImlhdCI6MTY5MTMyNjE3NiwiZXhwIjoxNjkxNDEyNTc2fQ.Dj0PgazBwFUsG4vA0n5OIA4-VwlW9ty1T03IT_yTOmc",
            "type": "text"
          }
        ],
        "body": {
          "mode": "raw",
          "raw": "{\r\n  \"image_name\": \"Cà phê đen\",\r\n  \"image_url\": \"1691346034194_coffee.jpg\",\r\n  \"image_desc\": \"Mô tả\",\r\n  \"user_id\": 1\r\n}",
          "options": {
            "raw": {
              "language": "json"
            }
          }
        },
        "url": {
          "raw": "{{domain}}/api/image/create-image",
          "host": ["{{domain}}"],
          "path": ["api", "image", "create-image"]
        }
      },
      "response": []
    },
    {
      "name": "get images",
      "protocolProfileBehavior": {
        "disableBodyPruning": true
      },
      "request": {
        "method": "GET",
        "header": [
          {
            "key": "token",
            "value": "eyJhbGciOiJIUzI1NiIsInR5cCI6IkpXVCJ9.eyJkYXRhIjp7Im5ndW9pX2R1bmdfaWQiOjEsImVtYWlsIjoiaG9hbmdsYW0wODY5QGdtYWlsLmNvbSIsIm1hdF9raGF1IjoiIiwiaG9fdGVuIjoiQ-G6pW4gSG_DoG5nIEzDom0iLCJ0dW9pIjozMCwiYW5oX2RhaV9kaWVuIjoiIn0sImlhdCI6MTY5MTMyNjE3NiwiZXhwIjoxNjkxNDEyNTc2fQ.Dj0PgazBwFUsG4vA0n5OIA4-VwlW9ty1T03IT_yTOmc",
            "type": "text"
          }
        ],
        "body": {
          "mode": "formdata",
          "formdata": []
        },
        "url": {
          "raw": "{{domain}}/api/image/get-image",
          "host": ["{{domain}}"],
          "path": ["api", "image", "get-image"]
        }
      },
      "response": []
    },
    {
      "name": "get images by name",
      "protocolProfileBehavior": {
        "disableBodyPruning": true
      },
      "request": {
        "method": "GET",
        "header": [
          {
            "key": "token",
            "value": "eyJhbGciOiJIUzI1NiIsInR5cCI6IkpXVCJ9.eyJkYXRhIjp7Im5ndW9pX2R1bmdfaWQiOjIsImVtYWlsIjoiY2FuaG9hbmdsaW5oOThAZ21haWwuY29tIiwibWF0X2toYXUiOiIiLCJob190ZW4iOiJD4bqlbiBIb8OgbmcgTGluaCIsInR1b2kiOjI1LCJhbmhfZGFpX2RpZW4iOiIifSwiaWF0IjoxNjkxNDM2ODc4LCJleHAiOjE2OTE1MjMyNzh9.oM7LCjia0LJkct9qfLsUn6elFnfpxrFC1Gz0DKsoez8",
            "type": "text"
          }
        ],
        "body": {
          "mode": "raw",
          "raw": "",
          "options": {
            "raw": {
              "language": "json"
            }
          }
        },
        "url": {
          "raw": "{{domain}}/api/image/get-image-by-name/a",
          "host": ["{{domain}}"],
          "path": ["api", "image", "get-image-by-name", "a"]
        }
      },
      "response": []
    },
    {
      "name": "get image detail",
      "protocolProfileBehavior": {
        "disableBodyPruning": true
      },
      "request": {
        "method": "GET",
        "header": [
          {
            "key": "token",
            "value": "eyJhbGciOiJIUzI1NiIsInR5cCI6IkpXVCJ9.eyJkYXRhIjp7Im5ndW9pX2R1bmdfaWQiOjEsImVtYWlsIjoiaG9hbmdsYW0wODY5QGdtYWlsLmNvbSIsIm1hdF9raGF1IjoiIiwiaG9fdGVuIjoiQ-G6pW4gSG_DoG5nIEzDom0iLCJ0dW9pIjozMCwiYW5oX2RhaV9kaWVuIjoiIn0sImlhdCI6MTY5MTMyNjE3NiwiZXhwIjoxNjkxNDEyNTc2fQ.Dj0PgazBwFUsG4vA0n5OIA4-VwlW9ty1T03IT_yTOmc",
            "type": "text"
          }
        ],
        "body": {
          "mode": "raw",
          "raw": "",
          "options": {
            "raw": {
              "language": "json"
            }
          }
        },
        "url": {
          "raw": "{{domain}}/api/image/get-image-detail/3",
          "host": ["{{domain}}"],
          "path": ["api", "image", "get-image-detail", "3"]
        }
      },
      "response": []
    },
    {
      "name": "get comments",
      "protocolProfileBehavior": {
        "disableBodyPruning": true
      },
      "request": {
        "method": "GET",
        "header": [
          {
            "key": "token",
            "value": "eyJhbGciOiJIUzI1NiIsInR5cCI6IkpXVCJ9.eyJkYXRhIjp7Im5ndW9pX2R1bmdfaWQiOjEsImVtYWlsIjoiaG9hbmdsYW0wODY5QGdtYWlsLmNvbSIsIm1hdF9raGF1IjoiIiwiaG9fdGVuIjoiQ-G6pW4gSG_DoG5nIEzDom0iLCJ0dW9pIjozMCwiYW5oX2RhaV9kaWVuIjoiIn0sImlhdCI6MTY5MTMyNjE3NiwiZXhwIjoxNjkxNDEyNTc2fQ.Dj0PgazBwFUsG4vA0n5OIA4-VwlW9ty1T03IT_yTOmc",
            "type": "text"
          }
        ],
        "body": {
          "mode": "raw",
          "raw": "",
          "options": {
            "raw": {
              "language": "json"
            }
          }
        },
        "url": {
          "raw": "{{domain}}/api/image/get-comment/3",
          "host": ["{{domain}}"],
          "path": ["api", "image", "get-comment", "3"]
        }
      },
      "response": []
    },
    {
      "name": "get saved image",
      "protocolProfileBehavior": {
        "disableBodyPruning": true
      },
      "request": {
        "method": "GET",
        "header": [
          {
            "key": "token",
            "value": "eyJhbGciOiJIUzI1NiIsInR5cCI6IkpXVCJ9.eyJkYXRhIjp7Im5ndW9pX2R1bmdfaWQiOjEsImVtYWlsIjoiaG9hbmdsYW0wODY5QGdtYWlsLmNvbSIsIm1hdF9raGF1IjoiIiwiaG9fdGVuIjoiQ-G6pW4gSG_DoG5nIEzDom0iLCJ0dW9pIjozMCwiYW5oX2RhaV9kaWVuIjoiIn0sImlhdCI6MTY5MTMyNjE3NiwiZXhwIjoxNjkxNDEyNTc2fQ.Dj0PgazBwFUsG4vA0n5OIA4-VwlW9ty1T03IT_yTOmc",
            "type": "text"
          }
        ],
        "body": {
          "mode": "raw",
          "raw": "",
          "options": {
            "raw": {
              "language": "json"
            }
          }
        },
        "url": {
          "raw": "{{domain}}/api/image/get-saved-image/3/3",
          "host": ["{{domain}}"],
          "path": ["api", "image", "get-saved-image", "3", "3"]
        }
      },
      "response": []
    },
    {
      "name": "get saved image by user",
      "protocolProfileBehavior": {
        "disableBodyPruning": true
      },
      "request": {
        "method": "GET",
        "header": [
          {
            "key": "token",
            "value": "eyJhbGciOiJIUzI1NiIsInR5cCI6IkpXVCJ9.eyJkYXRhIjp7Im5ndW9pX2R1bmdfaWQiOjEsImVtYWlsIjoiaG9hbmdsYW0wODY5QGdtYWlsLmNvbSIsIm1hdF9raGF1IjoiIiwiaG9fdGVuIjoiQ-G6pW4gSG_DoG5nIEzDom0iLCJ0dW9pIjozMCwiYW5oX2RhaV9kaWVuIjoiIn0sImlhdCI6MTY5MTMyNjE3NiwiZXhwIjoxNjkxNDEyNTc2fQ.Dj0PgazBwFUsG4vA0n5OIA4-VwlW9ty1T03IT_yTOmc",
            "type": "text"
          }
        ],
        "body": {
          "mode": "raw",
          "raw": "",
          "options": {
            "raw": {
              "language": "json"
            }
          }
        },
        "url": {
          "raw": "{{domain}}/api/image/get-saved-image-by-user/1",
          "host": ["{{domain}}"],
          "path": ["api", "image", "get-saved-image-by-user", "1"]
        }
      },
      "response": []
    },
    {
      "name": "get created image by user",
      "protocolProfileBehavior": {
        "disableBodyPruning": true
      },
      "request": {
        "method": "GET",
        "header": [
          {
            "key": "token",
            "value": "eyJhbGciOiJIUzI1NiIsInR5cCI6IkpXVCJ9.eyJkYXRhIjp7Im5ndW9pX2R1bmdfaWQiOjEsImVtYWlsIjoiaG9hbmdsYW0wODY5QGdtYWlsLmNvbSIsIm1hdF9raGF1IjoiIiwiaG9fdGVuIjoiQ-G6pW4gSG_DoG5nIEzDom0iLCJ0dW9pIjozMCwiYW5oX2RhaV9kaWVuIjoiIn0sImlhdCI6MTY5MTMyNjE3NiwiZXhwIjoxNjkxNDEyNTc2fQ.Dj0PgazBwFUsG4vA0n5OIA4-VwlW9ty1T03IT_yTOmc",
            "type": "text"
          }
        ],
        "body": {
          "mode": "raw",
          "raw": "",
          "options": {
            "raw": {
              "language": "json"
            }
          }
        },
        "url": {
          "raw": "{{domain}}/api/image/get-created-image-by-user/3",
          "host": ["{{domain}}"],
          "path": ["api", "image", "get-created-image-by-user", "3"]
        }
      },
      "response": []
    },
    {
      "name": "save comment",
      "request": {
        "method": "POST",
        "header": [
          {
            "key": "token",
            "value": "eyJhbGciOiJIUzI1NiIsInR5cCI6IkpXVCJ9.eyJkYXRhIjp7Im5ndW9pX2R1bmdfaWQiOjEsImVtYWlsIjoiaG9hbmdsYW0wODY5QGdtYWlsLmNvbSIsIm1hdF9raGF1IjoiIiwiaG9fdGVuIjoiQ-G6pW4gSG_DoG5nIEzDom0iLCJ0dW9pIjozMCwiYW5oX2RhaV9kaWVuIjoiIn0sImlhdCI6MTY5MTMyNjE3NiwiZXhwIjoxNjkxNDEyNTc2fQ.Dj0PgazBwFUsG4vA0n5OIA4-VwlW9ty1T03IT_yTOmc",
            "type": "text"
          }
        ],
        "body": {
          "mode": "raw",
          "raw": "{\r\n    \"content\": \"Diễn viên đóng Flash tên gì thế ạ?\",\r\n    \"user_id\": 3,\r\n    \"image_id\": 2\r\n}",
          "options": {
            "raw": {
              "language": "json"
            }
          }
        },
        "url": {
          "raw": "{{domain}}/api/image/save-comment",
          "host": ["{{domain}}"],
          "path": ["api", "image", "save-comment"]
        }
      },
      "response": []
    },
    {
      "name": "save image",
      "request": {
        "method": "POST",
        "header": [
          {
            "key": "token",
            "value": "eyJhbGciOiJIUzI1NiIsInR5cCI6IkpXVCJ9.eyJkYXRhIjp7Im5ndW9pX2R1bmdfaWQiOjEsImVtYWlsIjoiaG9hbmdsYW0wODY5QGdtYWlsLmNvbSIsIm1hdF9raGF1IjoiIiwiaG9fdGVuIjoiQ-G6pW4gSG_DoG5nIEzDom0iLCJ0dW9pIjozMCwiYW5oX2RhaV9kaWVuIjoiIn0sImlhdCI6MTY5MTMyNjE3NiwiZXhwIjoxNjkxNDEyNTc2fQ.Dj0PgazBwFUsG4vA0n5OIA4-VwlW9ty1T03IT_yTOmc",
            "type": "text"
          }
        ],
        "body": {
          "mode": "raw",
          "raw": "",
          "options": {
            "raw": {
              "language": "json"
            }
          }
        },
        "url": {
          "raw": "{{domain}}/api/image/save-image/3/2",
          "host": ["{{domain}}"],
          "path": ["api", "image", "save-image", "3", "2"]
        }
      },
      "response": []
    },
    {
      "name": "delete image",
      "request": {
        "method": "DELETE",
        "header": [
          {
            "key": "token",
            "value": "eyJhbGciOiJIUzI1NiIsInR5cCI6IkpXVCJ9.eyJkYXRhIjp7Im5ndW9pX2R1bmdfaWQiOjEsImVtYWlsIjoiaG9hbmdsYW0wODY5QGdtYWlsLmNvbSIsIm1hdF9raGF1IjoiIiwiaG9fdGVuIjoiQ-G6pW4gSG_DoG5nIEzDom0iLCJ0dW9pIjozMCwiYW5oX2RhaV9kaWVuIjoiIn0sImlhdCI6MTY5MTMyNjE3NiwiZXhwIjoxNjkxNDEyNTc2fQ.Dj0PgazBwFUsG4vA0n5OIA4-VwlW9ty1T03IT_yTOmc",
            "type": "text"
          }
        ],
        "body": {
          "mode": "raw",
          "raw": "",
          "options": {
            "raw": {
              "language": "json"
            }
          }
        },
        "url": {
          "raw": "{{domain}}/api/image/delete-image/4",
          "host": ["{{domain}}"],
          "path": ["api", "image", "delete-image", "4"]
        }
      },
      "response": []
    },
    {
      "name": "get user",
      "protocolProfileBehavior": {
        "disableBodyPruning": true
      },
      "request": {
        "method": "GET",
        "header": [
          {
            "key": "token",
            "value": "eyJhbGciOiJIUzI1NiIsInR5cCI6IkpXVCJ9.eyJkYXRhIjp7Im5ndW9pX2R1bmdfaWQiOjEsImVtYWlsIjoiaG9hbmdsYW0wODY5QGdtYWlsLmNvbSIsIm1hdF9raGF1IjoiIiwiaG9fdGVuIjoiQ-G6pW4gSG_DoG5nIEzDom0iLCJ0dW9pIjozMCwiYW5oX2RhaV9kaWVuIjoiIn0sImlhdCI6MTY5MTMyNjE3NiwiZXhwIjoxNjkxNDEyNTc2fQ.Dj0PgazBwFUsG4vA0n5OIA4-VwlW9ty1T03IT_yTOmc",
            "type": "text"
          }
        ],
        "body": {
          "mode": "raw",
          "raw": "",
          "options": {
            "raw": {
              "language": "json"
            }
          }
        },
        "url": {
          "raw": "{{domain}}/api/user/get-user",
          "host": ["{{domain}}"],
          "path": ["api", "user", "get-user"]
        }
      },
      "response": []
    },
    {
      "name": "update user",
      "request": {
        "method": "PUT",
        "header": [
          {
            "key": "token",
            "value": "eyJhbGciOiJIUzI1NiIsInR5cCI6IkpXVCJ9.eyJkYXRhIjp7Im5ndW9pX2R1bmdfaWQiOjEsImVtYWlsIjoiaG9hbmdsYW0wODY5QGdtYWlsLmNvbSIsIm1hdF9raGF1IjoiIiwiaG9fdGVuIjoiQ-G6pW4gSG_DoG5nIEzDom0iLCJ0dW9pIjozMCwiYW5oX2RhaV9kaWVuIjoiIn0sImlhdCI6MTY5MTMyNjE3NiwiZXhwIjoxNjkxNDEyNTc2fQ.Dj0PgazBwFUsG4vA0n5OIA4-VwlW9ty1T03IT_yTOmc",
            "type": "text"
          }
        ],
        "body": {
          "mode": "raw",
          "raw": "{\r\n    \"password\": \"Lam28061993\",\r\n    \"full_name\": \"Cấn Lâm\",\r\n    \"age\": 25\r\n}",
          "options": {
            "raw": {
              "language": "json"
            }
          }
        },
        "url": {
          "raw": "{{domain}}/api/user/update-user",
          "host": ["{{domain}}"],
          "path": ["api", "user", "update-user"]
        }
      },
      "response": []
    }
  ],
  "event": [
    {
      "listen": "prerequest",
      "script": {
        "type": "text/javascript",
        "exec": [""]
      }
    },
    {
      "listen": "test",
      "script": {
        "type": "text/javascript",
        "exec": [""]
      }
    }
  ],
  "variable": [
    {
      "key": "domain",
      "value": "localhost:8080",
      "type": "string"
    }
  ]
}
